…
``` r
data<-read_csv("C:/Users/rudym/Downloads/archive (1)/447_1 (1).csv")
```

``` r
data %>%
  group_by(brand, name) %>%
  count()
```

    ## # A tibble: 285 x 3
    ## # Groups:   brand, name [285]
    ##    brand             name                                               n
    ##    <chr>             <chr>                                          <int>
    ##  1 1000 Stories      1000 Stories174 Zinfandel - 750ml Bottle           2
    ##  2 14 Hands Winery   14 Hands174 Red Blend - 750ml Bottle               1
    ##  3 19 Crimes         19 Crimes174 Red Blend - 750ml Bottle              2
    ##  4 603 Brewery       603174 White Peaks Ipa - 6pk / 12oz Cans           2
    ##  5 603 Brewery       603174 Winni Amber Ale - 6pk / 12oz Cans           1
    ##  6 ABSOLUT           Absolut Mandrin Vodka, 750 mL                      1
    ##  7 Admiral Nelson    Admiral Nelson Spiced Rum, 1.75 L                  1
    ##  8 ALAMOS            Alamos Malbec Wine, 750mL                          1
    ##  9 American Beverage Big Bucket Premium Margarita Mixer, 96.0 FL OZ     7
    ## 10 Angostora         Angostura Aromatic Bitters, 4 fl oz               10
    ## # ... with 275 more rows
…
  
  
What are the most commo words in the Review titles?

``` r
reviews_title %>%
  count(word, sort = T)
```

    ## # A tibble: 285 x 2
    ##    word      n
    ##    <chr> <int>
    ##  1 wine     47
    ##  2 great    27
    ##  3 for      21
    ##  4 good     20
    ##  5 the      19
    ##  6 best     14
    ##  7 not      14
    ##  8 love     12
    ##  9 red      12
    ## 10 a        11
    ## # ... with 275 more rows

  
  
What are the most commo words in the Review Text?

``` r
reviews_text %>%
  count(word, sort = T)
```

    ## # A tibble: 1,524 x 2
    ##    word      n
    ##    <chr> <int>
    ##  1 the     399
    ##  2 i       372
    ##  3 a       259
    ##  4 and     238
    ##  5 it      221
    ##  6 wine    204
    ##  7 to      199
    ##  8 this    184
    ##  9 is      161
    ## 10 of      132
    ## # ... with 1,514 more rows
…
``` r
stop_words<-c("this", "it", "the","and","of","it", "a", "i", "is", "to", "with", "as", "it's")

stop_words<-append(stop_words, c("for", "that", "in", "are"))
```

``` r
library(widyr)

title_word_paris<-reviews_title %>%
  pairwise_count(word, id, sort=T, upper=F)
title_word_paris
```

    ## # A tibble: 26,738 x 3
    ##    item1 item2      n
    ##    <chr> <chr>  <dbl>
    ##  1 wine  great      5
    ##  2 wine  best       4
    ##  3 the   for        4
    ##  4 wine  for        4
    ##  5 for   price      4
    ##  6 for   great      4
    ##  7 price great      4
    ##  8 love  sweet      3
    ##  9 sweet smooth     3
    ## 10 sweet red        3
    ## # ... with 26,728 more rows

  
  
Here we can count how many times each pair of words occur together in
the title or text field

``` r
text_word_paris<-reviews_text %>%
  pairwise_count(word, id, sort=T, upper=F)
text_word_paris
```

    ## # A tibble: 951,873 x 3
    ##    item1 item2     n
    ##    <chr> <chr> <dbl>
    ##  1 this  wine     25
    ##  2 a     this     24
    ##  3 this  is       23
    ##  4 this  and      22
    ##  5 this  the      20
    ##  6 this  i        19
    ##  7 this  of       18
    ##  8 this  it       18
    ##  9 i     it       18
    ## 10 a     is       17
    ## # ... with 951,863 more rows
…
